{ 
	"name" : "Barks Korvkiosk",
	"address" : "Lineborgsplan 3",
	"description" : "One of Växjös and Swedens oldest snack bar. Founded by Ernst Bark in 1956.",
	"imageURL" : "barks.png",
	"rating" : "4",
	"reviews" : [
		{
			"author" : "Sven",
			"content" : "Very good sausages. Can't get enough of 'em!"
		},
		{
			"author" : "Oskar",
			"content" : "This is an OK place to eat lunch."
		}
	]
}